\relax 
\providecommand\hyper@newdestlabel[2]{}
\providecommand\HyperFirstAtBeginDocument{\AtBeginDocument}
\HyperFirstAtBeginDocument{\ifx\hyper@anchor\@undefined
\global\let\oldcontentsline\contentsline
\gdef\contentsline#1#2#3#4{\oldcontentsline{#1}{#2}{#3}}
\global\let\oldnewlabel\newlabel
\gdef\newlabel#1#2{\newlabelxx{#1}#2}
\gdef\newlabelxx#1#2#3#4#5#6{\oldnewlabel{#1}{{#2}{#3}}}
\AtEndDocument{\ifx\hyper@anchor\@undefined
\let\contentsline\oldcontentsline
\let\newlabel\oldnewlabel
\fi}
\fi}
\global\let\hyper@last\relax 
\gdef\HyperFirstAtBeginDocument#1{#1}
\providecommand\HyField@AuxAddToFields[1]{}
\providecommand\HyField@AuxAddToCoFields[2]{}
\@writefile{toc}{\contentsline {section}{\numberline {1}Inleiding}{3}{section.1}}
\@writefile{toc}{\contentsline {section}{\numberline {2}Ontwerp}{3}{section.2}}
\@writefile{lof}{\contentsline {figure}{\numberline {1}{\ignorespaces Voorpagina}}{3}{figure.1}}
\@writefile{lof}{\contentsline {figure}{\numberline {2}{\ignorespaces Andere pagina's}}{4}{figure.2}}
\@writefile{toc}{\contentsline {section}{\numberline {3}Implementatie}{5}{section.3}}
\@writefile{lof}{\contentsline {figure}{\numberline {3}{\ignorespaces Screenshot van de voorpagina}}{5}{figure.3}}
\@writefile{toc}{\contentsline {section}{\numberline {4}Onderhoudsboek}{6}{section.4}}
\@writefile{toc}{\contentsline {subsection}{\numberline {4.1}\emph  {Mission-statement}}{6}{subsection.4.1}}
\@writefile{toc}{\contentsline {subsection}{\numberline {4.2}Mapstructuur}{6}{subsection.4.2}}
\@writefile{toc}{\contentsline {subsection}{\numberline {4.3}Stylesheets}{6}{subsection.4.3}}
\@writefile{toc}{\contentsline {subsection}{\numberline {4.4}Afbeeldingen}{6}{subsection.4.4}}
\@writefile{toc}{\contentsline {subsection}{\numberline {4.5}Lettertype}{6}{subsection.4.5}}
\@writefile{toc}{\contentsline {subsection}{\numberline {4.6}Scripts}{6}{subsection.4.6}}
\@writefile{toc}{\contentsline {section}{\numberline {5}Referenties}{6}{section.5}}
