\contentsline {section}{\numberline {1}Inleiding}{3}{section.1}
\contentsline {section}{\numberline {2}Ontwerp}{3}{section.2}
\contentsline {section}{\numberline {3}Implementatie}{5}{section.3}
\contentsline {section}{\numberline {4}Onderhoudsboek}{6}{section.4}
\contentsline {subsection}{\numberline {4.1}\emph {Mission-statement}}{6}{subsection.4.1}
\contentsline {subsection}{\numberline {4.2}Mapstructuur}{6}{subsection.4.2}
\contentsline {subsection}{\numberline {4.3}Stylesheets}{6}{subsection.4.3}
\contentsline {subsection}{\numberline {4.4}Afbeeldingen}{6}{subsection.4.4}
\contentsline {subsection}{\numberline {4.5}Lettertype}{6}{subsection.4.5}
\contentsline {subsection}{\numberline {4.6}Scripts}{6}{subsection.4.6}
\contentsline {section}{\numberline {5}Referenties}{6}{section.5}
